#
# A fatal error has been detected by the Java Runtime Environment:
#
#  SIGSEGV (0xb) at pc=0x00007fe6081e03fa, pid=13882, tid=140624985872128
#
# JRE version: OpenJDK Runtime Environment (8.0_91-b14) (build 1.8.0_91-8u91-b14-0ubuntu4~16.04.1-b14)
# Java VM: OpenJDK 64-Bit Server VM (25.91-b14 mixed mode linux-amd64 compressed oops)
# Problematic frame:
# v  ~BufferBlob::jni_fast_GetLongField
#
# Failed to write core dump. Core dumps have been disabled. To enable core dumping, try "ulimit -c unlimited" before starting Java again
#
# If you would like to submit a bug report, please visit:
#   http://bugreport.java.com/bugreport/crash.jsp
# The crash happened outside the Java Virtual Machine in native code.
# See problematic frame for where to report the bug.
#

---------------  T H R E A D  ---------------

Current thread (0x00007fe6184de800):  JavaThread "AWT-XAWT" daemon [_thread_in_native, id=13901, stack(0x00007fe5ce445000,0x00007fe5ce546000)]

siginfo: si_signo: 11 (SIGSEGV), si_code: 1 (SEGV_MAPERR), si_addr: 0x0000000000000000

Registers:
RAX=0x00007fe61da41e80, RBX=0x00007fe6184de9e0, RCX=0x0000000000000000, RDX=0x0000000000000042
RSP=0x00007fe5ce544838, RBP=0x00007fe5ce544860, RSI=0x0000000000000000, RDI=0x00007fe6184de9e0
R8 =0x000000008c4b4738, R9 =0x0000000000000000, R10=0x0000000000000086, R11=0x00007fe608d64418
R12=0x00007fe5b4de2c20, R13=0x0000000000000000, R14=0x00007fe5f460fb00, R15=0x00007fe6184de800
RIP=0x00007fe6081e03fa, EFLAGS=0x0000000000010246, CSGSFS=0x0000000000000033, ERR=0x0000000000000004
  TRAPNO=0x000000000000000e

Top of Stack: (sp=0x00007fe5ce544838)
0x00007fe5ce544838:   00007fe5f43ecf34 00007fe606cebba0
0x00007fe5ce544848:   00007fe5b4de2c20 00007fe5ce544910
0x00007fe5ce544858:   00007fe5ce5448e0 0000000000000000
0x00007fe5ce544868:   00007fe5cfd2a3c0 00007fe606cebba0
0x00007fe5ce544878:   00007fe5ce5448a0 0000000000000000
0x00007fe5ce544888:   00007fe5cfd21f93 00007fe5ce544910
0x00007fe5ce544898:   00007fe5f43e4caf 00007fe5ce5448f0
0x00007fe5ce5448a8:   00007fe608d644b6 0000000000000000
0x00007fe5ce5448b8:   00007fe608adca76 00007fe5ce544910
0x00007fe5ce5448c8:   00007fe60828dd2c 00007fe5ce544970
0x00007fe5ce5448d8:   000000008c4b3fa0 000000008c202da8
0x00007fe5ce5448e8:   0000000000000019 00007fe5ce544970
0x00007fe5ce5448f8:   00007fe60817e7d0 00007fe5ce544970
0x00007fe5ce544908:   00007fe60817e7d0 0000000000000000
0x00007fe5ce544918:   00007fe60817eb10 00007fe5bc002e40
0x00007fe5ce544928:   000000008c4b3a30 00007fe5ce544930
0x00007fe5ce544938:   00007fe606ccbd6c 00007fe5ce5449b8
0x00007fe5ce544948:   00007fe606cd4cb8 0000000000000000
0x00007fe5ce544958:   00007fe606ccbea8 00007fe5ce544910
0x00007fe5ce544968:   00007fe5ce5449b0 00007fe5ce544a00
0x00007fe5ce544978:   00007fe60817effd 0000000000000000
0x00007fe5ce544988:   00000000dae03068 0000000000000000
0x00007fe5ce544998:   0000000000000000 0000000000000000
0x00007fe5ce5449a8:   000000008c4b3a30 0000000000000000
0x00007fe5ce5449b8:   000000008c30fdd0 00007fe5ce5449c0
0x00007fe5ce5449c8:   00007fe606ccbbad 00007fe5ce544a10
0x00007fe5ce5449d8:   00007fe606cd4cb8 0000000000000000
0x00007fe5ce5449e8:   00007fe606ccbbb8 00007fe5ce5449b0
0x00007fe5ce5449f8:   00007fe5ce544a10 00007fe5ce544a58
0x00007fe5ce544a08:   00007fe60817f042 000000008c30fdd0
0x00007fe5ce544a18:   00007fe5ce544a18 00007fe6068378db
0x00007fe5ce544a28:   00007fe5ce544a68 00007fe6068bedd8 

Instructions: (pc=0x00007fe6081e03fa)
0x00007fe6081e03da:   00 00 00 00 00 00 44 8b 15 ed e4 88 15 4c 8b ce
0x00007fe6081e03ea:   41 f6 c2 01 0f 85 2e 00 00 00 4d 33 ca 4d 33 ca
0x00007fe6081e03fa:   4d 8b 09 4c 8b da 49 c1 eb 02 4b 8b 04 19 49 bb
0x00007fe6081e040a:   d4 e8 a6 1d e6 7f 00 00 4c 33 d8 4c 33 d8 45 3b 

Register to memory mapping:

RAX=0x00007fe61da41e80: <offset 0xee7e80> in /usr/lib/jvm/java-8-openjdk-amd64/jre/lib/amd64/server/libjvm.so at 0x00007fe61cb5a000
RBX=0x00007fe6184de9e0 is an unknown value
RCX=0x0000000000000000 is an unknown value
RDX=0x0000000000000042 is an unknown value
RSP=0x00007fe5ce544838 is pointing into the stack for thread: 0x00007fe6184de800
RBP=0x00007fe5ce544860 is pointing into the stack for thread: 0x00007fe6184de800
RSI=0x0000000000000000 is an unknown value
RDI=0x00007fe6184de9e0 is an unknown value
R8 =0x000000008c4b4738 is an oop
java.util.logging.Logger 
 - klass: 'java/util/logging/Logger'
R9 =0x0000000000000000 is an unknown value
R10=0x0000000000000086 is an unknown value
R11=0x00007fe608d64418 is at entry_point+24 in (nmethod*)0x00007fe608d64290
R12=0x00007fe5b4de2c20 is an unknown value
R13=0x0000000000000000 is an unknown value
R14=0x00007fe5f460fb00: <offset 0x258b00> in /usr/lib/jvm/java-8-openjdk-amd64/jre/lib/amd64/libawt_xawt.so at 0x00007fe5f43b7000
R15=0x00007fe6184de800 is a thread


Stack: [0x00007fe5ce445000,0x00007fe5ce546000],  sp=0x00007fe5ce544838,  free space=1022k
Native frames: (J=compiled Java code, j=interpreted, Vv=VM code, C=native code)
v  ~BufferBlob::jni_fast_GetLongField
C  [libX11.so.6+0x643c0]  _XimServerDestroy+0x70

Java frames: (J=compiled Java code, j=interpreted, Vv=VM code)
J 4056  sun.awt.X11.XlibWrapper.XFilterEvent(JJ)Z (0 bytes) @ 0x00007fe608d64444 [0x00007fe608d64400+0x44]
j  sun.awt.X11.XToolkit.run(Z)V+300
j  sun.awt.X11.XToolkit.run()V+5
j  java.lang.Thread.run()V+11
v  ~StubRoutines::call_stub

---------------  P R O C E S S  ---------------

Java Threads: ( => current thread )
  0x00007fe5b4490000 JavaThread "pool-1-thread-1" [_thread_blocked, id=13917, stack(0x00007fe5cc913000,0x00007fe5cca14000)]
  0x00007fe5b447c800 JavaThread "HSQLDB Timer @6bae78e7" daemon [_thread_blocked, id=13916, stack(0x00007fe5cca14000,0x00007fe5ccb15000)]
  0x00007fe5b43ac800 JavaThread "Abandoned connection cleanup thread" daemon [_thread_blocked, id=13910, stack(0x00007fe5ccf15000,0x00007fe5cd016000)]
  0x00007fe5b40df800 JavaThread "TimerQueue" daemon [_thread_blocked, id=13904, stack(0x00007fe5cd816000,0x00007fe5cd917000)]
  0x00007fe61800c000 JavaThread "DestroyJavaVM" [_thread_blocked, id=13886, stack(0x00007fe61e796000,0x00007fe61e897000)]
  0x00007fe6184f9000 JavaThread "AWT-EventQueue-0" [_thread_blocked, id=13903, stack(0x00007fe5cdb17000,0x00007fe5cdc18000)]
  0x00007fe61850f000 JavaThread "AWT-Shutdown" [_thread_blocked, id=13902, stack(0x00007fe5cdc18000,0x00007fe5cdd19000)]
=>0x00007fe6184de800 JavaThread "AWT-XAWT" daemon [_thread_in_native, id=13901, stack(0x00007fe5ce445000,0x00007fe5ce546000)]
  0x00007fe6184c3800 JavaThread "Java2D Disposer" daemon [_thread_blocked, id=13900, stack(0x00007fe5f40a4000,0x00007fe5f41a5000)]
  0x00007fe6180c3800 JavaThread "Service Thread" daemon [_thread_blocked, id=13898, stack(0x00007fe604774000,0x00007fe604875000)]
  0x00007fe6180b4000 JavaThread "C1 CompilerThread2" daemon [_thread_blocked, id=13897, stack(0x00007fe604875000,0x00007fe604976000)]
  0x00007fe6180b2000 JavaThread "C2 CompilerThread1" daemon [_thread_blocked, id=13896, stack(0x00007fe604976000,0x00007fe604a77000)]
  0x00007fe6180af000 JavaThread "C2 CompilerThread0" daemon [_thread_blocked, id=13895, stack(0x00007fe604a77000,0x00007fe604b78000)]
  0x00007fe6180ad000 JavaThread "Signal Dispatcher" daemon [_thread_in_vm, id=13894, stack(0x00007fe604b78000,0x00007fe604c79000)]
  0x00007fe618085800 JavaThread "Finalizer" daemon [_thread_blocked, id=13893, stack(0x00007fe60537b000,0x00007fe60547c000)]
  0x00007fe618081000 JavaThread "Reference Handler" daemon [_thread_blocked, id=13892, stack(0x00007fe60547c000,0x00007fe60557d000)]

Other Threads:
  0x00007fe618079800 VMThread [stack: 0x00007fe60557d000,0x00007fe60567e000] [id=13891]
  0x00007fe6180c6000 WatcherThread [stack: 0x00007fe604673000,0x00007fe604774000] [id=13899]

VM state:not at safepoint (normal execution)

VM Mutex/Monitor currently owned by a thread:  ([mutex/lock_event])
[0x00007fe618008560] Threads_lock - owner thread: 0x00007fe6180ad000

Heap:
 PSYoungGen      total 86016K, used 27755K [0x00000000d9600000, 0x00000000e0600000, 0x0000000100000000)
  eden space 75776K, 36% used [0x00000000d9600000,0x00000000db11af30,0x00000000de000000)
  from space 10240K, 0% used [0x00000000deb80000,0x00000000deb80000,0x00000000df580000)
  to   space 11776K, 0% used [0x00000000de000000,0x00000000de000000,0x00000000deb80000)
 ParOldGen       total 77824K, used 16078K [0x000000008c200000, 0x0000000090e00000, 0x00000000d9600000)
  object space 77824K, 20% used [0x000000008c200000,0x000000008d1b3ab8,0x0000000090e00000)
 Metaspace       used 38577K, capacity 38980K, committed 39296K, reserved 1083392K
  class space    used 4506K, capacity 4631K, committed 4736K, reserved 1048576K

Card table byte_map: [0x00007fe607a17000,0x00007fe607db7000] byte_map_base: 0x00007fe6075b6000

Marking Bits: (ParMarkBitMap*) 0x00007fe61da6dfc0
 Begin Bits: [0x00007fe5f4610000, 0x00007fe5f6308000)
 End Bits:   [0x00007fe5f6308000, 0x00007fe5f8000000)

Polling page: 0x00007fe61e8bf000

CodeCache: size=245760Kb used=12957Kb max_used=13474Kb free=232802Kb
 bounds [0x00007fe608177000, 0x00007fe608eb7000, 0x00007fe617177000]
 total_blobs=5085 nmethods=4286 adapters=711
 compilation: enabled

Compilation events (10 events):
Event: 3841,853 Thread 0x00007fe6180b4000 4474       3       java.util.concurrent.ScheduledThreadPoolExecutor$DelayedWorkQueue::setIndex (16 bytes)
Event: 3841,853 Thread 0x00007fe6180b4000 nmethod 4474 0x00007fe608436f10 code [0x00007fe608437080, 0x00007fe6084373f0]
Event: 3841,854 Thread 0x00007fe6180b4000 4473       3       java.util.concurrent.ScheduledThreadPoolExecutor$ScheduledFutureTask::getDelay (20 bytes)
Event: 3841,854 Thread 0x00007fe6180b4000 nmethod 4473 0x00007fe608549ad0 code [0x00007fe608549c60, 0x00007fe608549f88]
Event: 4561,858 Thread 0x00007fe6180b4000 4475       3       java.util.concurrent.ConcurrentLinkedQueue::succ (19 bytes)
Event: 4561,859 Thread 0x00007fe6180b4000 nmethod 4475 0x00007fe60833edd0 code [0x00007fe60833ef40, 0x00007fe60833f0f0]
Event: 5453,870 Thread 0x00007fe6180b4000 4476   !   3       java.util.Vector$Itr::next (63 bytes)
Event: 5453,871 Thread 0x00007fe6180b4000 nmethod 4476 0x00007fe60833c210 code [0x00007fe60833c3e0, 0x00007fe60833ca98]
Event: 5453,872 Thread 0x00007fe6180b4000 4477       3       java.util.Vector$Itr::checkForComodification (23 bytes)
Event: 5453,872 Thread 0x00007fe6180b4000 nmethod 4477 0x00007fe6085592d0 code [0x00007fe608559440, 0x00007fe608559668]

GC Heap History (10 events):
Event: 1,333 GC heap before
{Heap before GC invocations=4 (full 1):
 PSYoungGen      total 34816K, used 4585K [0x00000000d9600000, 0x00000000dda00000, 0x0000000100000000)
  eden space 30208K, 0% used [0x00000000d9600000,0x00000000d9600000,0x00000000db380000)
  from space 4608K, 99% used [0x00000000db380000,0x00000000db7fa460,0x00000000db800000)
  to   space 4608K, 0% used [0x00000000dd580000,0x00000000dd580000,0x00000000dda00000)
 ParOldGen       total 79360K, used 3651K [0x000000008c200000, 0x0000000090f80000, 0x00000000d9600000)
  object space 79360K, 4% used [0x000000008c200000,0x000000008c590c40,0x0000000090f80000)
 Metaspace       used 20825K, capacity 21064K, committed 21296K, reserved 1069056K
  class space    used 2610K, capacity 2668K, committed 2688K, reserved 1048576K
Event: 1,378 GC heap after
Heap after GC invocations=4 (full 1):
 PSYoungGen      total 34816K, used 0K [0x00000000d9600000, 0x00000000dda00000, 0x0000000100000000)
  eden space 30208K, 0% used [0x00000000d9600000,0x00000000d9600000,0x00000000db380000)
  from space 4608K, 0% used [0x00000000db380000,0x00000000db380000,0x00000000db800000)
  to   space 4608K, 0% used [0x00000000dd580000,0x00000000dd580000,0x00000000dda00000)
 ParOldGen       total 49152K, used 4830K [0x000000008c200000, 0x000000008f200000, 0x00000000d9600000)
  object space 49152K, 9% used [0x000000008c200000,0x000000008c6b7bb0,0x000000008f200000)
 Metaspace       used 20825K, capacity 21064K, committed 21296K, reserved 1069056K
  class space    used 2610K, capacity 2668K, committed 2688K, reserved 1048576K
}
Event: 2,129 GC heap before
{Heap before GC invocations=5 (full 1):
 PSYoungGen      total 34816K, used 30208K [0x00000000d9600000, 0x00000000dda00000, 0x0000000100000000)
  eden space 30208K, 100% used [0x00000000d9600000,0x00000000db380000,0x00000000db380000)
  from space 4608K, 0% used [0x00000000db380000,0x00000000db380000,0x00000000db800000)
  to   space 4608K, 0% used [0x00000000dd580000,0x00000000dd580000,0x00000000dda00000)
 ParOldGen       total 49152K, used 4830K [0x000000008c200000, 0x000000008f200000, 0x00000000d9600000)
  object space 49152K, 9% used [0x000000008c200000,0x000000008c6b7bb0,0x000000008f200000)
 Metaspace       used 26233K, capacity 26506K, committed 26880K, reserved 1073152K
  class space    used 3164K, capacity 3255K, committed 3328K, reserved 1048576K
Event: 2,136 GC heap after
Heap after GC invocations=5 (full 1):
 PSYoungGen      total 53760K, used 4578K [0x00000000d9600000, 0x00000000dda00000, 0x0000000100000000)
  eden space 49152K, 0% used [0x00000000d9600000,0x00000000d9600000,0x00000000dc600000)
  from space 4608K, 99% used [0x00000000dd580000,0x00000000dd9f8968,0x00000000dda00000)
  to   space 4608K, 0% used [0x00000000dd100000,0x00000000dd100000,0x00000000dd580000)
 ParOldGen       total 49152K, used 6145K [0x000000008c200000, 0x000000008f200000, 0x00000000d9600000)
  object space 49152K, 12% used [0x000000008c200000,0x000000008c800468,0x000000008f200000)
 Metaspace       used 26233K, capacity 26506K, committed 26880K, reserved 1073152K
  class space    used 3164K, capacity 3255K, committed 3328K, reserved 1048576K
}
Event: 2,843 GC heap before
{Heap before GC invocations=6 (full 1):
 PSYoungGen      total 53760K, used 53730K [0x00000000d9600000, 0x00000000dda00000, 0x0000000100000000)
  eden space 49152K, 100% used [0x00000000d9600000,0x00000000dc600000,0x00000000dc600000)
  from space 4608K, 99% used [0x00000000dd580000,0x00000000dd9f8968,0x00000000dda00000)
  to   space 4608K, 0% used [0x00000000dd100000,0x00000000dd100000,0x00000000dd580000)
 ParOldGen       total 49152K, used 6145K [0x000000008c200000, 0x000000008f200000, 0x00000000d9600000)
  object space 49152K, 12% used [0x000000008c200000,0x000000008c800468,0x000000008f200000)
 Metaspace       used 30716K, capacity 31050K, committed 31232K, reserved 1077248K
  class space    used 3725K, capacity 3815K, committed 3840K, reserved 1048576K
Event: 2,858 GC heap after
Heap after GC invocations=6 (full 1):
 PSYoungGen      total 65024K, used 4598K [0x00000000d9600000, 0x00000000df580000, 0x0000000100000000)
  eden space 60416K, 0% used [0x00000000d9600000,0x00000000d9600000,0x00000000dd100000)
  from space 4608K, 99% used [0x00000000dd100000,0x00000000dd57da80,0x00000000dd580000)
  to   space 10240K, 0% used [0x00000000deb80000,0x00000000deb80000,0x00000000df580000)
 ParOldGen       total 49152K, used 10804K [0x000000008c200000, 0x000000008f200000, 0x00000000d9600000)
  object space 49152K, 21% used [0x000000008c200000,0x000000008cc8d1d0,0x000000008f200000)
 Metaspace       used 30716K, capacity 31050K, committed 31232K, reserved 1077248K
  class space    used 3725K, capacity 3815K, committed 3840K, reserved 1048576K
}
Event: 13,025 GC heap before
{Heap before GC invocations=7 (full 1):
 PSYoungGen      total 65024K, used 45905K [0x00000000d9600000, 0x00000000df580000, 0x0000000100000000)
  eden space 60416K, 68% used [0x00000000d9600000,0x00000000dbe56bc0,0x00000000dd100000)
  from space 4608K, 99% used [0x00000000dd100000,0x00000000dd57da80,0x00000000dd580000)
  to   space 10240K, 0% used [0x00000000deb80000,0x00000000deb80000,0x00000000df580000)
 ParOldGen       total 49152K, used 10804K [0x000000008c200000, 0x000000008f200000, 0x00000000d9600000)
  object space 49152K, 21% used [0x000000008c200000,0x000000008cc8d1d0,0x000000008f200000)
 Metaspace       used 35035K, capacity 35362K, committed 35456K, reserved 1081344K
  class space    used 4120K, capacity 4213K, committed 4224K, reserved 1048576K
Event: 13,047 GC heap after
Heap after GC invocations=7 (full 1):
 PSYoungGen      total 86016K, used 10209K [0x00000000d9600000, 0x00000000e0600000, 0x0000000100000000)
  eden space 75776K, 0% used [0x00000000d9600000,0x00000000d9600000,0x00000000de000000)
  from space 10240K, 99% used [0x00000000deb80000,0x00000000df578558,0x00000000df580000)
  to   space 11776K, 0% used [0x00000000de000000,0x00000000de000000,0x00000000deb80000)
 ParOldGen       total 49152K, used 10845K [0x000000008c200000, 0x000000008f200000, 0x00000000d9600000)
  object space 49152K, 22% used [0x000000008c200000,0x000000008cc97468,0x000000008f200000)
 Metaspace       used 35035K, capacity 35362K, committed 35456K, reserved 1081344K
  class space    used 4120K, capacity 4213K, committed 4224K, reserved 1048576K
}
Event: 13,047 GC heap before
{Heap before GC invocations=8 (full 2):
 PSYoungGen      total 86016K, used 10209K [0x00000000d9600000, 0x00000000e0600000, 0x0000000100000000)
  eden space 75776K, 0% used [0x00000000d9600000,0x00000000d9600000,0x00000000de000000)
  from space 10240K, 99% used [0x00000000deb80000,0x00000000df578558,0x00000000df580000)
  to   space 11776K, 0% used [0x00000000de000000,0x00000000de000000,0x00000000deb80000)
 ParOldGen       total 49152K, used 10845K [0x000000008c200000, 0x000000008f200000, 0x00000000d9600000)
  object space 49152K, 22% used [0x000000008c200000,0x000000008cc97468,0x000000008f200000)
 Metaspace       used 35035K, capacity 35362K, committed 35456K, reserved 1081344K
  class space    used 4120K, capacity 4213K, committed 4224K, reserved 1048576K
Event: 13,160 GC heap after
Heap after GC invocations=8 (full 2):
 PSYoungGen      total 86016K, used 0K [0x00000000d9600000, 0x00000000e0600000, 0x0000000100000000)
  eden space 75776K, 0% used [0x00000000d9600000,0x00000000d9600000,0x00000000de000000)
  from space 10240K, 0% used [0x00000000deb80000,0x00000000deb80000,0x00000000df580000)
  to   space 11776K, 0% used [0x00000000de000000,0x00000000de000000,0x00000000deb80000)
 ParOldGen       total 77824K, used 16078K [0x000000008c200000, 0x0000000090e00000, 0x00000000d9600000)
  object space 77824K, 20% used [0x000000008c200000,0x000000008d1b3ab8,0x0000000090e00000)
 Metaspace       used 35035K, capacity 35362K, committed 35456K, reserved 1081344K
  class space    used 4120K, capacity 4213K, committed 4224K, reserved 1048576K
}

Deoptimization events (10 events):
Event: 5,733 Thread 0x00007fe6184f9000 Uncommon trap: reason=class_check action=maybe_recompile pc=0x00007fe6082f3724 method=java.lang.String.equals(Ljava/lang/Object;)Z @ 8
Event: 5,733 Thread 0x00007fe6184f9000 Uncommon trap: reason=class_check action=maybe_recompile pc=0x00007fe6082f3724 method=java.lang.String.equals(Ljava/lang/Object;)Z @ 8
Event: 12,880 Thread 0x00007fe6184f9000 Uncommon trap: reason=unstable_if action=reinterpret pc=0x00007fe608b486ec method=sun.java2d.pisces.PiscesTileGenerator.getAlpha([BII)V @ 56
Event: 13,195 Thread 0x00007fe6184f9000 Uncommon trap: reason=unstable_if action=reinterpret pc=0x00007fe6089ff8f4 method=java.lang.Class.newInstance()Ljava/lang/Object; @ 106
Event: 13,260 Thread 0x00007fe6184f9000 Uncommon trap: reason=unstable_if action=reinterpret pc=0x00007fe608bd5408 method=sun.java2d.pisces.Renderer._endRendering(IIII)V @ 240
Event: 13,262 Thread 0x00007fe6184f9000 Uncommon trap: reason=unstable_if action=reinterpret pc=0x00007fe608bcfb48 method=java.lang.StrictMath.floorOrCeil(DDDD)D @ 38
Event: 13,262 Thread 0x00007fe6184f9000 Uncommon trap: reason=unstable_if action=reinterpret pc=0x00007fe608b6b474 method=java.lang.StrictMath.floorOrCeil(DDDD)D @ 38
Event: 14,495 Thread 0x00007fe6184f9000 Uncommon trap: reason=unstable_if action=reinterpret pc=0x00007fe6089a6734 method=java.lang.reflect.Field.get(Ljava/lang/Object;)Ljava/lang/Object; @ 4
Event: 14,785 Thread 0x00007fe6184f9000 Uncommon trap: reason=unstable_if action=reinterpret pc=0x00007fe608e21a84 method=com.itextpdf.text.pdf.ByteBuffer.append_i(I)Lcom/itextpdf/text/pdf/ByteBuffer; @ 13
Event: 14,789 Thread 0x00007fe6184f9000 Uncommon trap: reason=unstable_if action=reinterpret pc=0x00007fe608656a60 method=java.lang.CharacterDataLatin1.isWhitespace(I)Z @ 14

Internal exceptions (10 events):
Event: 0,801 Thread 0x00007fe6184f9000 Exception <a 'java/lang/ClassNotFoundException': org/apache/log4j/AppenderSkeletonCustomizer> (0x00000000d96719d8) thrown at [/build/openjdk-8-6lTAoN/openjdk-8-8u91-b14/src/hotspot/src/share/vm/classfile/systemDictionary.cpp, line 210]
Event: 0,804 Thread 0x00007fe6184f9000 Exception <a 'java/lang/ClassNotFoundException': org/apache/log4j/WriterAppenderCustomizer> (0x00000000d977b138) thrown at [/build/openjdk-8-6lTAoN/openjdk-8-8u91-b14/src/hotspot/src/share/vm/classfile/systemDictionary.cpp, line 210]
Event: 0,806 Thread 0x00007fe6184f9000 Exception <a 'java/lang/ClassNotFoundException': org/apache/log4j/FileAppenderCustomizer> (0x00000000d9796d00) thrown at [/build/openjdk-8-6lTAoN/openjdk-8-8u91-b14/src/hotspot/src/share/vm/classfile/systemDictionary.cpp, line 210]
Event: 0,808 Thread 0x00007fe6184f9000 Exception <a 'java/lang/ClassNotFoundException': org/apache/log4j/RollingFileAppenderCustomizer> (0x00000000d97b43f0) thrown at [/build/openjdk-8-6lTAoN/openjdk-8-8u91-b14/src/hotspot/src/share/vm/classfile/systemDictionary.cpp, line 210]
Event: 0,817 Thread 0x00007fe6184f9000 Exception <a 'java/lang/ClassNotFoundException': org/apache/log4j/ConsoleAppenderBeanInfo> (0x00000000d9801540) thrown at [/build/openjdk-8-6lTAoN/openjdk-8-8u91-b14/src/hotspot/src/share/vm/classfile/systemDictionary.cpp, line 210]
Event: 0,817 Thread 0x00007fe6184f9000 Exception <a 'java/lang/ClassNotFoundException': org/apache/log4j/ConsoleAppenderCustomizer> (0x00000000d9810f38) thrown at [/build/openjdk-8-6lTAoN/openjdk-8-8u91-b14/src/hotspot/src/share/vm/classfile/systemDictionary.cpp, line 210]
Event: 1,831 Thread 0x00007fe6184f9000 Exception <a 'java/lang/NullPointerException'> (0x00000000da5f9df8) thrown at [/build/openjdk-8-6lTAoN/openjdk-8-8u91-b14/src/hotspot/src/share/vm/runtime/reflection.cpp, line 922]
Event: 3,881 Thread 0x00007fe6184f9000 Exception <a 'java/lang/UnsupportedOperationException': > (0x00000000db97a398) thrown at [/build/openjdk-8-6lTAoN/openjdk-8-8u91-b14/src/hotspot/src/share/vm/prims/jni.cpp, line 735]
Event: 13,500 Thread 0x00007fe6184f9000 Exception <a 'java/lang/UnsupportedOperationException': > (0x00000000d9a46800) thrown at [/build/openjdk-8-6lTAoN/openjdk-8-8u91-b14/src/hotspot/src/share/vm/prims/jni.cpp, line 735]
Event: 14,946 Thread 0x00007fe6184f9000 Exception <a 'java/lang/UnsupportedOperationException': > (0x00000000dae38688) thrown at [/build/openjdk-8-6lTAoN/openjdk-8-8u91-b14/src/hotspot/src/share/vm/prims/jni.cpp, line 735]

Events (10 events):
Event: 2627,028 Thread 0x00007fe6180af000 flushing nmethod 0x00007fe6085a6590
Event: 2627,028 Thread 0x00007fe6180af000 flushing nmethod 0x00007fe6085a6e10
Event: 2627,028 Thread 0x00007fe6180af000 flushing nmethod 0x00007fe6085b53d0
Event: 2627,028 Thread 0x00007fe6180af000 flushing nmethod 0x00007fe6085d8350
Event: 2690,553 Thread 0x00007fe6180b2000 flushing nmethod 0x00007fe6085f3350
Event: 2690,553 Thread 0x00007fe6180b2000 flushing nmethod 0x00007fe608602050
Event: 2690,553 Thread 0x00007fe6180b2000 flushing nmethod 0x00007fe60862d4d0
Event: 2690,553 Thread 0x00007fe6180b2000 flushing nmethod 0x00007fe608636350
Event: 2690,553 Thread 0x00007fe6180b2000 flushing nmethod 0x00007fe60863a990
Event: 2690,553 Thread 0x00007fe6180b2000 flushing nmethod 0x00007fe60863b110


Dynamic libraries:
00400000-00401000 r-xp 00000000 08:02 8658217                            /usr/lib/jvm/java-8-openjdk-amd64/jre/bin/java
00600000-00601000 r--p 00000000 08:02 8658217                            /usr/lib/jvm/java-8-openjdk-amd64/jre/bin/java
00601000-00602000 rw-p 00001000 08:02 8658217                            /usr/lib/jvm/java-8-openjdk-amd64/jre/bin/java
007d9000-007fa000 rw-p 00000000 00:00 0                                  [heap]
8c200000-90e00000 rw-p 00000000 00:00 0 
90e00000-d9600000 ---p 00000000 00:00 0 
d9600000-e0600000 rw-p 00000000 00:00 0 
e0600000-100000000 ---p 00000000 00:00 0 
100000000-1004a0000 rw-p 00000000 00:00 0 
1004a0000-140000000 ---p 00000000 00:00 0 
7fe5a0000000-7fe5a0021000 rw-p 00000000 00:00 0 
7fe5a0021000-7fe5a4000000 ---p 00000000 00:00 0 
7fe5a4000000-7fe5a4021000 rw-p 00000000 00:00 0 
7fe5a4021000-7fe5a8000000 ---p 00000000 00:00 0 
7fe5abc00000-7fe5abdc0000 rw-p 00000000 00:00 0 
7fe5abdc0000-7fe5abe00000 ---p 00000000 00:00 0 
7fe5abe00000-7fe5ac000000 rw-p 00000000 00:00 0 
7fe5ac000000-7fe5ac021000 rw-p 00000000 00:00 0 
7fe5ac021000-7fe5b0000000 ---p 00000000 00:00 0 
7fe5b0000000-7fe5b0021000 rw-p 00000000 00:00 0 
7fe5b0021000-7fe5b4000000 ---p 00000000 00:00 0 
7fe5b4000000-7fe5b4dee000 rw-p 00000000 00:00 0 
7fe5b4dee000-7fe5b8000000 ---p 00000000 00:00 0 
7fe5b8000000-7fe5b8021000 rw-p 00000000 00:00 0 
7fe5b8021000-7fe5bc000000 ---p 00000000 00:00 0 
7fe5bc000000-7fe5bc021000 rw-p 00000000 00:00 0 
7fe5bc021000-7fe5c0000000 ---p 00000000 00:00 0 
7fe5c0000000-7fe5c0021000 rw-p 00000000 00:00 0 
7fe5c0021000-7fe5c4000000 ---p 00000000 00:00 0 
7fe5c4000000-7fe5c4021000 rw-p 00000000 00:00 0 
7fe5c4021000-7fe5c8000000 ---p 00000000 00:00 0 
7fe5c8000000-7fe5c8021000 rw-p 00000000 00:00 0 
7fe5c8021000-7fe5cc000000 ---p 00000000 00:00 0 
7fe5cc012000-7fe5cc015000 ---p 00000000 00:00 0 
7fe5cc015000-7fe5cc313000 rw-p 00000000 00:00 0 
7fe5cc313000-7fe5cc513000 rw-p 00000000 00:00 0 
7fe5cc513000-7fe5cc713000 rw-p 00000000 00:00 0 
7fe5cc713000-7fe5cc913000 rw-p 00000000 00:00 0 
7fe5cc913000-7fe5cc916000 ---p 00000000 00:00 0 
7fe5cc916000-7fe5cca14000 rw-p 00000000 00:00 0 
7fe5cca14000-7fe5cca17000 ---p 00000000 00:00 0 
7fe5cca17000-7fe5ccd15000 rw-p 00000000 00:00 0 
7fe5ccd15000-7fe5ccf15000 rw-p 00000000 00:00 0 
7fe5ccf15000-7fe5ccf18000 ---p 00000000 00:00 0 
7fe5ccf18000-7fe5cd216000 rw-p 00000000 00:00 0 
7fe5cd216000-7fe5cd416000 rw-p 00000000 00:00 0 
7fe5cd416000-7fe5cd616000 rw-p 00000000 00:00 0 
7fe5cd616000-7fe5cd816000 rw-p 00000000 00:00 0 
7fe5cd816000-7fe5cd819000 ---p 00000000 00:00 0 
7fe5cd819000-7fe5cdb17000 rw-p 00000000 00:00 0 
7fe5cdb17000-7fe5cdb1a000 ---p 00000000 00:00 0 
7fe5cdb1a000-7fe5cdc18000 rw-p 00000000 00:00 0 
7fe5cdc18000-7fe5cdc1b000 ---p 00000000 00:00 0 
7fe5cdc1b000-7fe5cdd19000 rw-p 00000000 00:00 0 
7fe5cdd19000-7fe5cdd2a000 r-xp 00000000 08:02 7737942                    /usr/lib/jvm/java-8-openjdk-amd64/jre/lib/amd64/libnio.so
7fe5cdd2a000-7fe5cdf2a000 ---p 00011000 08:02 7737942                    /usr/lib/jvm/java-8-openjdk-amd64/jre/lib/amd64/libnio.so
7fe5cdf2a000-7fe5cdf2b000 r--p 00011000 08:02 7737942                    /usr/lib/jvm/java-8-openjdk-amd64/jre/lib/amd64/libnio.so
7fe5cdf2b000-7fe5cdf2c000 rw-p 00012000 08:02 7737942                    /usr/lib/jvm/java-8-openjdk-amd64/jre/lib/amd64/libnio.so
7fe5cdf2c000-7fe5ce22d000 rw-p 00000000 00:00 0 
7fe5ce22d000-7fe5ce244000 r-xp 00000000 08:02 7737945                    /usr/lib/jvm/java-8-openjdk-amd64/jre/lib/amd64/libnet.so
7fe5ce244000-7fe5ce443000 ---p 00017000 08:02 7737945                    /usr/lib/jvm/java-8-openjdk-amd64/jre/lib/amd64/libnet.so
7fe5ce443000-7fe5ce444000 r--p 00016000 08:02 7737945                    /usr/lib/jvm/java-8-openjdk-amd64/jre/lib/amd64/libnet.so
7fe5ce444000-7fe5ce445000 rw-p 00017000 08:02 7737945                    /usr/lib/jvm/java-8-openjdk-amd64/jre/lib/amd64/libnet.so
7fe5ce445000-7fe5ce448000 ---p 00000000 00:00 0 
7fe5ce448000-7fe5ce546000 rw-p 00000000 00:00 0 
7fe5ce546000-7fe5ce54b000 r-xp 00000000 08:02 6824583                    /usr/lib/x86_64-linux-gnu/libXfixes.so.3.1.0
7fe5ce54b000-7fe5ce74a000 ---p 00005000 08:02 6824583                    /usr/lib/x86_64-linux-gnu/libXfixes.so.3.1.0
7fe5ce74a000-7fe5ce74b000 r--p 00004000 08:02 6824583                    /usr/lib/x86_64-linux-gnu/libXfixes.so.3.1.0
7fe5ce74b000-7fe5ce74c000 rw-p 00005000 08:02 6824583                    /usr/lib/x86_64-linux-gnu/libXfixes.so.3.1.0
7fe5ce74c000-7fe5ce755000 r-xp 00000000 08:02 6824575                    /usr/lib/x86_64-linux-gnu/libXcursor.so.1.0.2
7fe5ce755000-7fe5ce954000 ---p 00009000 08:02 6824575                    /usr/lib/x86_64-linux-gnu/libXcursor.so.1.0.2
7fe5ce954000-7fe5ce955000 r--p 00008000 08:02 6824575                    /usr/lib/x86_64-linux-gnu/libXcursor.so.1.0.2
7fe5ce955000-7fe5ce956000 rw-p 00009000 08:02 6824575                    /usr/lib/x86_64-linux-gnu/libXcursor.so.1.0.2
7fe5ce956000-7fe5ce97a000 r-xp 00000000 08:02 4461087                    /lib/x86_64-linux-gnu/libpng12.so.0.54.0
7fe5ce97a000-7fe5ceb79000 ---p 00024000 08:02 4461087                    /lib/x86_64-linux-gnu/libpng12.so.0.54.0
7fe5ceb79000-7fe5ceb7a000 r--p 00023000 08:02 4461087                    /lib/x86_64-linux-gnu/libpng12.so.0.54.0
7fe5ceb7a000-7fe5ceb7b000 rw-p 00024000 08:02 4461087                    /lib/x86_64-linux-gnu/libpng12.so.0.54.0
7fe5ceb7b000-7fe5cec1f000 r-xp 00000000 08:02 6824968                    /usr/lib/x86_64-linux-gnu/libfreetype.so.6.12.1
7fe5cec1f000-7fe5cee1e000 ---p 000a4000 08:02 6824968                    /usr/lib/x86_64-linux-gnu/libfreetype.so.6.12.1
7fe5cee1e000-7fe5cee24000 r--p 000a3000 08:02 6824968                    /usr/lib/x86_64-linux-gnu/libfreetype.so.6.12.1
7fe5cee24000-7fe5cee25000 rw-p 000a9000 08:02 6824968                    /usr/lib/x86_64-linux-gnu/libfreetype.so.6.12.1
7fe5cee25000-7fe5cee77000 r-xp 00000000 08:02 7737962                    /usr/lib/jvm/java-8-openjdk-amd64/jre/lib/amd64/libfontmanager.so
7fe5cee77000-7fe5cf077000 ---p 00052000 08:02 7737962                    /usr/lib/jvm/java-8-openjdk-amd64/jre/lib/amd64/libfontmanager.so
7fe5cf077000-7fe5cf079000 r--p 00052000 08:02 7737962                    /usr/lib/jvm/java-8-openjdk-amd64/jre/lib/amd64/libfontmanager.so
7fe5cf079000-7fe5cf07a000 rw-p 00054000 08:02 7737962                    /usr/lib/jvm/java-8-openjdk-amd64/jre/lib/amd64/libfontmanager.so
7fe5cf07a000-7fe5cf07f000 r-xp 00000000 08:02 6824579                    /usr/lib/x86_64-linux-gnu/libXdmcp.so.6.0.0
7fe5cf07f000-7fe5cf27e000 ---p 00005000 08:02 6824579                    /usr/lib/x86_64-linux-gnu/libXdmcp.so.6.0.0
7fe5cf27e000-7fe5cf27f000 r--p 00004000 08:02 6824579                    /usr/lib/x86_64-linux-gnu/libXdmcp.so.6.0.0
7fe5cf27f000-7fe5cf280000 rw-p 00005000 08:02 6824579                    /usr/lib/x86_64-linux-gnu/libXdmcp.so.6.0.0
7fe5cf280000-7fe5cf282000 r-xp 00000000 08:02 6824568                    /usr/lib/x86_64-linux-gnu/libXau.so.6.0.0
7fe5cf282000-7fe5cf482000 ---p 00002000 08:02 6824568                    /usr/lib/x86_64-linux-gnu/libXau.so.6.0.0
7fe5cf482000-7fe5cf483000 r--p 00002000 08:02 6824568                    /usr/lib/x86_64-linux-gnu/libXau.so.6.0.0
7fe5cf483000-7fe5cf484000 rw-p 00003000 08:02 6824568                    /usr/lib/x86_64-linux-gnu/libXau.so.6.0.0
7fe5cf484000-7fe5cf4a5000 r-xp 00000000 08:02 6825907                    /usr/lib/x86_64-linux-gnu/libxcb.so.1.1.0
7fe5cf4a5000-7fe5cf6a4000 ---p 00021000 08:02 6825907                    /usr/lib/x86_64-linux-gnu/libxcb.so.1.1.0
7fe5cf6a4000-7fe5cf6a5000 r--p 00020000 08:02 6825907                    /usr/lib/x86_64-linux-gnu/libxcb.so.1.1.0
7fe5cf6a5000-7fe5cf6a6000 rw-p 00021000 08:02 6825907                    /usr/lib/x86_64-linux-gnu/libxcb.so.1.1.0
7fe5cf6a6000-7fe5cf6b5000 r-xp 00000000 08:02 6824589                    /usr/lib/x86_64-linux-gnu/libXi.so.6.1.0
7fe5cf6b5000-7fe5cf8b4000 ---p 0000f000 08:02 6824589                    /usr/lib/x86_64-linux-gnu/libXi.so.6.1.0
7fe5cf8b4000-7fe5cf8b5000 r--p 0000e000 08:02 6824589                    /usr/lib/x86_64-linux-gnu/libXi.so.6.1.0
7fe5cf8b5000-7fe5cf8b6000 rw-p 0000f000 08:02 6824589                    /usr/lib/x86_64-linux-gnu/libXi.so.6.1.0
7fe5cf8b6000-7fe5cf8bb000 r-xp 00000000 08:02 6824607                    /usr/lib/x86_64-linux-gnu/libXtst.so.6.1.0
7fe5cf8bb000-7fe5cfaba000 ---p 00005000 08:02 6824607                    /usr/lib/x86_64-linux-gnu/libXtst.so.6.1.0
7fe5cfaba000-7fe5cfabb000 r--p 00004000 08:02 6824607                    /usr/lib/x86_64-linux-gnu/libXtst.so.6.1.0
7fe5cfabb000-7fe5cfabc000 rw-p 00005000 08:02 6824607                    /usr/lib/x86_64-linux-gnu/libXtst.so.6.1.0
7fe5cfabc000-7fe5cfac5000 r-xp 00000000 08:02 6824601                    /usr/lib/x86_64-linux-gnu/libXrender.so.1.3.0
7fe5cfac5000-7fe5cfcc4000 ---p 00009000 08:02 6824601                    /usr/lib/x86_64-linux-gnu/libXrender.so.1.3.0
7fe5cfcc4000-7fe5cfcc5000 r--p 00008000 08:02 6824601                    /usr/lib/x86_64-linux-gnu/libXrender.so.1.3.0
7fe5cfcc5000-7fe5cfcc6000 rw-p 00009000 08:02 6824601                    /usr/lib/x86_64-linux-gnu/libXrender.so.1.3.0
7fe5cfcc6000-7fe5cfdfb000 r-xp 00000000 08:02 6824564                    /usr/lib/x86_64-linux-gnu/libX11.so.6.3.0
7fe5cfdfb000-7fe5cfffb000 ---p 00135000 08:02 6824564                    /usr/lib/x86_64-linux-gnu/libX11.so.6.3.0
7fe5cfffb000-7fe5cfffc000 r--p 00135000 08:02 6824564                    /usr/lib/x86_64-linux-gnu/libX11.so.6.3.0
7fe5cfffc000-7fe5d0000000 rw-p 00136000 08:02 6824564                    /usr/lib/x86_64-linux-gnu/libX11.so.6.3.0
7fe5d0000000-7fe5d0dd9000 rw-p 00000000 00:00 0 
7fe5d0dd9000-7fe5d4000000 ---p 00000000 00:00 0 
7fe5d4000000-7fe5d4021000 rw-p 00000000 00:00 0 
7fe5d4021000-7fe5d8000000 ---p 00000000 00:00 0 
7fe5d8000000-7fe5d9da8000 rw-p 00000000 00:00 0 
7fe5d9da8000-7fe5dc000000 ---p 00000000 00:00 0 
7fe5dc000000-7fe5ddb14000 rw-p 00000000 00:00 0 
7fe5ddb14000-7fe5e0000000 ---p 00000000 00:00 0 
7fe5e0000000-7fe5e0021000 rw-p 00000000 00:00 0 
7fe5e0021000-7fe5e4000000 ---p 00000000 00:00 0 
7fe5e4000000-7fe5e4021000 rw-p 00000000 00:00 0 
7fe5e4021000-7fe5e8000000 ---p 00000000 00:00 0 
7fe5e8000000-7fe5e8021000 rw-p 00000000 00:00 0 
7fe5e8021000-7fe5ec000000 ---p 00000000 00:00 0 
7fe5ec000000-7fe5ec021000 rw-p 00000000 00:00 0 
7fe5ec021000-7fe5f0000000 ---p 00000000 00:00 0 
7fe5f0000000-7fe5f0021000 rw-p 00000000 00:00 0 
7fe5f0021000-7fe5f4000000 ---p 00000000 00:00 0 
7fe5f402f000-7fe5f4033000 r--s 00097000 08:02 7737972                    /usr/lib/jvm/java-8-openjdk-amd64/jre/lib/jsse.jar
7fe5f4033000-7fe5f4037000 r--s 00000000 08:02 9963121                    /var/cache/fontconfig/6aa41aa22e18b8fa06a12da28ea9c28b-le64.cache-6
7fe5f4037000-7fe5f4042000 r--s 00000000 08:02 9963120                    /var/cache/fontconfig/945677eb7aeaf62f1d50efc3fb3ec7d8-le64.cache-6
7fe5f4042000-7fe5f4044000 r--s 00000000 08:02 9963119                    /var/cache/fontconfig/99e8ed0e538f840c565b6ed5dad60d56-le64.cache-6
7fe5f4044000-7fe5f404d000 r--s 00000000 08:02 9963118                    /var/cache/fontconfig/a6d8cf8e4ec09cdbc8633c31745a07dd-le64.cache-6
7fe5f404d000-7fe5f4053000 r--s 00000000 08:02 9963117                    /var/cache/fontconfig/2cd17615ca594fa2959ae173292e504c-le64.cache-6
7fe5f4053000-7fe5f4054000 r--s 00000000 08:02 9963116                    /var/cache/fontconfig/0d8c3b2ac0904cb8a57a757ad11a4a08-le64.cache-6
7fe5f4054000-7fe5f4069000 r--s 00000000 08:02 9963114                    /var/cache/fontconfig/04aabc0a78ac019cf9454389977116d2-le64.cache-6
7fe5f4069000-7fe5f40a4000 r--s 00000000 08:02 9963107                    /var/cache/fontconfig/365b55f210c0a22e9a19e35191240f32-le64.cache-6
7fe5f40a4000-7fe5f40a7000 ---p 00000000 00:00 0 
7fe5f40a7000-7fe5f41a5000 rw-p 00000000 00:00 0 
7fe5f41a5000-7fe5f41b6000 r-xp 00000000 08:02 6824581                    /usr/lib/x86_64-linux-gnu/libXext.so.6.4.0
7fe5f41b6000-7fe5f43b5000 ---p 00011000 08:02 6824581                    /usr/lib/x86_64-linux-gnu/libXext.so.6.4.0
7fe5f43b5000-7fe5f43b6000 r--p 00010000 08:02 6824581                    /usr/lib/x86_64-linux-gnu/libXext.so.6.4.0
7fe5f43b6000-7fe5f43b7000 rw-p 00011000 08:02 6824581                    /usr/lib/x86_64-linux-gnu/libXext.so.6.4.0
7fe5f43b7000-7fe5f440b000 r-xp 00000000 08:02 7737936                    /usr/lib/jvm/java-8-openjdk-amd64/jre/lib/amd64/libawt_xawt.so
7fe5f440b000-7fe5f460b000 ---p 00054000 08:02 7737936                    /usr/lib/jvm/java-8-openjdk-amd64/jre/lib/amd64/libawt_xawt.so
7fe5f460b000-7fe5f460c000 r--p 00054000 08:02 7737936                    /usr/lib/jvm/java-8-openjdk-amd64/jre/lib/amd64/libawt_xawt.so
7fe5f460c000-7fe5f460f000 rw-p 00055000 08:02 7737936                    /usr/lib/jvm/java-8-openjdk-amd64/jre/lib/amd64/libawt_xawt.so
7fe5f460f000-7fe5f8000000 rw-p 00000000 00:00 0 
7fe5f8000000-7fe5f8021000 rw-p 00000000 00:00 0 
7fe5f8021000-7fe5fc000000 ---p 00000000 00:00 0 
7fe5fc000000-7fe5fc021000 rw-p 00000000 00:00 0 
7fe5fc021000-7fe600000000 ---p 00000000 00:00 0 
7fe600000000-7fe600021000 rw-p 00000000 00:00 0 
7fe600021000-7fe604000000 ---p 00000000 00:00 0 
7fe604000000-7fe604004000 r--s 00000000 08:02 9963115                    /var/cache/fontconfig/de156ccd2eddbdc19d37a45b8b2aac9c-le64.cache-6
7fe604004000-7fe604005000 r--s 00000000 08:02 9963113                    /var/cache/fontconfig/1ac9eb803944fde146138c791f5cc56a-le64.cache-6
7fe604005000-7fe604009000 r--s 00000000 08:02 9963112                    /var/cache/fontconfig/385c0604a188198f04d133e54aba7fe7-le64.cache-6
7fe604009000-7fe60400a000 r--s 00000000 08:02 9963111                    /var/cache/fontconfig/dc05db6664285cc2f12bf69c139ae4c3-le64.cache-6
7fe60400a000-7fe60400d000 r--s 00000000 08:02 9963110                    /var/cache/fontconfig/767a8244fc0220cfb567a839d0392e0b-le64.cache-6
7fe60400d000-7fe60400e000 r--s 00000000 08:02 9961871                    /var/cache/fontconfig/4794a0821666d79190d59a36cb4f44b5-le64.cache-6
7fe60400e000-7fe604013000 r--s 00000000 08:02 9963108                    /var/cache/fontconfig/8801497958630a81b71ace7c5f9b32a8-le64.cache-6
7fe604013000-7fe604014000 r--s 00000000 08:02 9963106                    /var/cache/fontconfig/bab58bb527bb656aaa9f116d68a48d89-le64.cache-6
7fe604014000-7fe60401b000 r--s 00000000 08:02 9963104                    /var/cache/fontconfig/3047814df9a2f067bd2d96a2b9c36e5a-le64.cache-6
7fe60401b000-7fe604023000 r--s 00000000 08:02 9963103                    /var/cache/fontconfig/bf3b770c553c462765856025a94f1ce6-le64.cache-6
7fe604023000-7fe604024000 r--s 00000000 08:02 9963102                    /var/cache/fontconfig/56cf4f4769d0f4abc89a4895d7bd3ae1-le64.cache-6
7fe604024000-7fe604025000 r--s 00000000 08:02 9963101                    /var/cache/fontconfig/b9d506c9ac06c20b433354fa67a72993-le64.cache-6
7fe604025000-7fe60402b000 r--s 00000000 08:02 9963100                    /var/cache/fontconfig/b47c4e1ecd0709278f4910c18777a504-le64.cache-6
7fe60402b000-7fe604033000 r--s 00000000 08:02 9963099                    /var/cache/fontconfig/52f7bdb7ce746bfd7eaa1985bd9cfa93-le64.cache-6
7fe604033000-7fe604046000 r--s 00000000 08:02 9963098                    /var/cache/fontconfig/d52a8644073d54c13679302ca1180695-le64.cache-6
7fe604046000-7fe604047000 r--s 00000000 08:02 9963097                    /var/cache/fontconfig/551ecf3b0e8b0bca0f25c0944f561853-le64.cache-6
7fe604047000-7fe604052000 r--s 00000000 08:02 9963096                    /var/cache/fontconfig/d589a48862398ed80a3d6066f4f56f4c-le64.cache-6
7fe604052000-7fe604053000 r--s 00000000 08:02 9963095                    /var/cache/fontconfig/30829fa25452a46451e813d634d7f916-le64.cache-6
7fe604053000-7fe604054000 r--s 00000000 08:02 9963094                    /var/cache/fontconfig/0c9eb80ebd1c36541ebe2852d3bb0c49-le64.cache-6
7fe604054000-7fe604057000 r--s 00000000 08:02 9963093                    /var/cache/fontconfig/75114ca45c98e8a441da0ff356701271-le64.cache-6
7fe604057000-7fe604062000 r--s 00000000 08:02 9963092                    /var/cache/fontconfig/83bf95040141907cd45bb53cf7c1c148-le64.cache-6
7fe604062000-7fe604074000 r--s 00000000 08:02 9963091                    /var/cache/fontconfig/9b89f8e3dae116d678bbf48e5f21f69b-le64.cache-6
7fe604074000-7fe604076000 r--s 00000000 08:02 9963090                    /var/cache/fontconfig/62f91419b9ebdb6975e7e41ab6412357-le64.cache-6
7fe604076000-7fe60408c000 r--s 00000000 08:02 9963081                    /var/cache/fontconfig/e13b20fdb08344e0e664864cc2ede53d-le64.cache-6
7fe60408c000-7fe604090000 r--s 00000000 08:02 9961882                    /var/cache/fontconfig/7ef2298fde41cc6eeb7af42e48b7d293-le64.cache-6
7fe604090000-7fe604092000 r--s 00000000 08:02 9963075                    /var/cache/fontconfig/16326683038b281783a0ef8c680e3a10-le64.cache-6
7fe604092000-7fe60409f000 r--s 00000000 08:02 9963074                    /var/cache/fontconfig/8f02d4cb045bd6ce15663e43f347c9f8-le64.cache-6
7fe60409f000-7fe6040a0000 r--s 00000000 08:02 9963073                    /var/cache/fontconfig/e0aa53bcfa504e64f87823c16bc01eb6-le64.cache-6
7fe6040a0000-7fe6040c1000 r--s 00000000 08:02 9963072                    /var/cache/fontconfig/467c019e582ee353435ea5c21d137ef6-le64.cache-6
7fe6040c1000-7fe6040d4000 r--s 00345000 08:02 7736911                    /usr/lib/jvm/java-8-openjdk-amd64/jre/lib/resources.jar
7fe6040d4000-7fe6040db000 r--s 00000000 08:02 7088890                    /usr/lib/x86_64-linux-gnu/gconv/gconv-modules.cache
7fe6040db000-7fe6040fc000 r--p 00000000 08:02 7870352                    /usr/share/locale-langpack/pt_BR/LC_MESSAGES/libc.mo
7fe6040fc000-7fe60419c000 r-xp 00000000 08:02 7737966                    /usr/lib/jvm/java-8-openjdk-amd64/jre/lib/amd64/libawt.so
7fe60419c000-7fe60439c000 ---p 000a0000 08:02 7737966                    /usr/lib/jvm/java-8-openjdk-amd64/jre/lib/amd64/libawt.so
7fe60439c000-7fe60439d000 r--p 000a0000 08:02 7737966                    /usr/lib/jvm/java-8-openjdk-amd64/jre/lib/amd64/libawt.so
7fe60439d000-7fe6043a8000 rw-p 000a1000 08:02 7737966                    /usr/lib/jvm/java-8-openjdk-amd64/jre/lib/amd64/libawt.so
7fe6043a8000-7fe6043cd000 rw-p 00000000 00:00 0 
7fe6043cd000-7fe6043d3000 r--s 002f8000 08:02 7737977                    /usr/lib/jvm/java-8-openjdk-amd64/jre/lib/charsets.jar
7fe6043d3000-7fe6043db000 r--s 00066000 08:02 11149687                   /home/allan/workspace/fsga/lib/velocity-1.7.jar
7fe6043db000-7fe6043e4000 r--s 0006f000 08:02 11149682                   /home/allan/workspace/fsga/lib/log4j-1.2.17.jar
7fe6043e4000-7fe6043ff000 r--s 000f4000 08:02 11149688                   /home/allan/workspace/fsga/lib/xdocreport-1.0.4.jar
7fe6043ff000-7fe604410000 r--s 0016f000 08:02 11149681                   /home/allan/workspace/fsga/lib/jfreechart-1.0.19.jar
7fe604410000-7fe604428000 r--s 00217000 08:02 11149667                   /home/allan/workspace/fsga/lib/itextpdf-5.5.9.jar
7fe604428000-7fe604440000 r--s 00132000 08:02 11149630                   /home/allan/workspace/fsga/lib/freemarker.jar
7fe604440000-7fe604473000 r--s 002b5000 08:02 11149668                   /home/allan/workspace/fsga/lib/jOpenDocument-1.3.jar
7fe604473000-7fe604476000 r--s 00022000 08:02 14948886                   /home/allan/workspace/fsga/lib/hsqldb-2.3.3/hsqldb/lib/sqltool.jar
7fe604476000-7fe604478000 r--s 00006000 08:02 14948885                   /home/allan/workspace/fsga/lib/hsqldb-2.3.3/hsqldb/lib/servlet-2_3-fcs-classfiles.zip
7fe604478000-7fe604486000 r--s 0015f000 08:02 14948884                   /home/allan/workspace/fsga/lib/hsqldb-2.3.3/hsqldb/lib/hsqldb.jar
7fe604486000-7fe604488000 r--s 0000d000 08:02 11149665                   /home/allan/workspace/fsga/lib/hibernate-validator.jar
7fe604488000-7fe60448e000 r--s 00017000 08:02 10096180                   /home/allan/.apps/netbeans-8.1/java/modules/ext/hibernate4/hibernate-jpa-2.1-api-1.0.0.Final.jar
7fe60448e000-7fe6044ab000 r--s 0014f000 08:02 11149686                   /home/allan/workspace/fsga/lib/swingx-all-1.6.4.jar
7fe6044ab000-7fe6044ac000 r--s 00000000 08:02 10097106                   /home/allan/.apps/netbeans-8.1/java/modules/ext/AbsoluteLayout.jar
7fe6044ac000-7fe6044bc000 r--s 00088000 08:02 13510167                   /home/allan/workspace/fsga/lib/joda-time-2.8/joda-time-2.8.jar
7fe6044bc000-7fe6044c1000 r--s 000b5000 08:02 13510166                   /home/allan/workspace/fsga/lib/joda-time-2.8/joda-time-2.8-sources.jar
7fe6044c1000-7fe6044c8000 r--s 00061000 08:02 13510165                   /home/allan/workspace/fsga/lib/joda-time-2.8/joda-time-2.8-no-tzdb.jar
7fe6044c8000-7fe6044d0000 r--s 0013a000 08:02 13510164                   /home/allan/workspace/fsga/lib/joda-time-2.8/joda-time-2.8-javadoc.jar
7fe6044d0000-7fe6044d6000 r--s 00030000 08:02 12076316                   /home/allan/workspace/fsga/lib/jcalendar-1.4/lib/junit-4.6.jar
7fe6044d6000-7fe6044df000 r--s 00058000 08:02 12076315                   /home/allan/workspace/fsga/lib/jcalendar-1.4/lib/jgoodies-looks-2.4.1.jar
7fe6044df000-7fe6044e0000 r--s 00006000 08:02 12076314                   /home/allan/workspace/fsga/lib/jcalendar-1.4/lib/jgoodies-common-1.2.0.jar
7fe6044e0000-7fe6044e6000 r--s 00023000 08:02 12076313                   /home/allan/workspace/fsga/lib/jcalendar-1.4/lib/jcalendar-1.4.jar
7fe6044e6000-7fe6044ef000 r--s 000e4000 08:02 11149683                   /home/allan/workspace/fsga/lib/mysql-connector-java-5.1.35-bin.jar
7fe6044ef000-7fe6044f0000 r--s 0001c000 08:02 10093396                   /home/allan/.apps/netbeans-8.1/platform/modules/ext/swing-layout-1.0.4.jar
7fe6044f0000-7fe6044f9000 r--s 00075000 08:02 11149626                   /home/allan/workspace/fsga/lib/DateChooser.jar
7fe6044f9000-7fe604500000 r--s 00094000 08:02 10097079                   /home/allan/.apps/netbeans-8.1/java/modules/ext/beansbinding-1.2.1.jar
7fe604500000-7fe604502000 r--s 00007000 08:02 11149641                   /home/allan/workspace/fsga/lib/hibernate-validator-5.1.3.Final/dist/hibernate-validator-cdi-5.1.3.Final.jar
7fe604502000-7fe604504000 r--s 0000e000 08:02 11149640                   /home/allan/workspace/fsga/lib/hibernate-validator-5.1.3.Final/dist/hibernate-validator-annotation-processor-5.1.3.Final.jar
7fe604504000-7fe604512000 r--s 0008d000 08:02 11149639                   /home/allan/workspace/fsga/lib/hibernate-validator-5.1.3.Final/dist/hibernate-validator-5.1.3.Final.jar
7fe604512000-7fe604516000 r--s 0000c000 08:02 11149654                   /home/allan/workspace/fsga/lib/hibernate-validator-5.1.3.Final/dist/lib/required/validation-api-1.1.0.Final.jar
7fe604516000-7fe604518000 r--s 0000c000 08:02 11149653                   /home/allan/workspace/fsga/lib/hibernate-validator-5.1.3.Final/dist/lib/required/jboss-logging-3.1.3.GA.jar
7fe604518000-7fe60451a000 r--s 00008000 08:02 11149652                   /home/allan/workspace/fsga/lib/hibernate-validator-5.1.3.Final/dist/lib/required/javax.el-api-2.2.4.jar
7fe60451a000-7fe60451d000 r--s 0001a000 08:02 11149651                   /home/allan/workspace/fsga/lib/hibernate-validator-5.1.3.Final/dist/lib/required/javax.el-2.2.4.jar
7fe60451d000-7fe60451f000 r--s 0000d000 08:02 11149650                   /home/allan/workspace/fsga/lib/hibernate-validator-5.1.3.Final/dist/lib/required/classmate-1.0.0.jar
7fe60451f000-7fe604521000 r--s 00005000 08:02 10096963                   /home/allan/.apps/netbeans-8.1/java/modules/ext/hibernate4/slf4j-api-1.6.1.jar
7fe604521000-7fe60452b000 r--s 000a2000 08:02 10096825                   /home/allan/.apps/netbeans-8.1/java/modules/ext/hibernate4/javassist-3.18.1-GA.jar
7fe60452b000-7fe604539000 r--s 00090000 08:02 10096108                   /home/allan/.apps/netbeans-8.1/java/modules/ext/hibernate4/hibernate-entitymanager-4.3.1.Final.jar
7fe604539000-7fe60453c000 r--s 00010000 08:02 10095979                   /home/allan/.apps/netbeans-8.1/java/modules/ext/hibernate4/hibernate-commons-annotations-4.0.4.Final.jar
7fe60453c000-7fe60453f000 r--s 0000c000 08:02 10096695                   /home/allan/.apps/netbeans-8.1/java/modules/ext/hibernate4/jboss-logging-3.1.3.GA.jar
7fe60453f000-7fe60459c000 r--s 00496000 08:02 10096519                   /home/allan/.apps/netbeans-8.1/java/modules/ext/hibernate4/hibernate-core-4.3.1.Final.jar
7fe60459c000-7fe60459f000 r--s 0001e000 08:02 10096385                   /home/allan/.apps/netbeans-8.1/java/modules/ext/hibernate4/hibernate-ehcache-4.3.1.Final.jar
7fe60459f000-7fe6045b4000 r--s 000e1000 08:02 10096867                   /home/allan/.apps/netbeans-8.1/java/modules/ext/hibernate4/ehcache-core-2.4.3.jar
7fe6045b4000-7fe6045b9000 r--s 00047000 08:02 10097035                   /home/allan/.apps/netbeans-8.1/java/modules/ext/hibernate4/dom4j-1.6.1.jar
7fe6045b9000-7fe6045c8000 r--s 00080000 08:02 10096445                   /home/allan/.apps/netbeans-8.1/java/modules/ext/hibernate4/mchange-commons-java-0.2.3.4.jar
7fe6045c8000-7fe6045cf000 r--s 00061000 08:02 10097014                   /home/allan/.apps/netbeans-8.1/java/modules/ext/hibernate4/c3p0-0.9.2.1.jar
7fe6045cf000-7fe6045d4000 r--s 00066000 08:02 10097036                   /home/allan/.apps/netbeans-8.1/java/modules/ext/hibernate4/antlr-2.7.7.jar
7fe6045d4000-7fe6045de000 r--s 000a5000 08:02 11149670                   /home/allan/workspace/fsga/lib/javassist-3.18.1-GA.jar
7fe6045de000-7fe60463c000 r--s 004ab000 08:02 11149632                   /home/allan/workspace/fsga/lib/hibernate-core-4.3.9.Final.jar
7fe60463c000-7fe604658000 r--s 00393000 08:02 8391807                    /usr/lib/jvm/java-8-openjdk-amd64/jre/lib/ext/cldrdata.jar
7fe604658000-7fe604673000 r--s 001d7000 08:02 8398560                    /usr/lib/jvm/java-8-openjdk-amd64/jre/lib/ext/nashorn.jar
7fe604673000-7fe604674000 ---p 00000000 00:00 0 
7fe604674000-7fe604774000 rw-p 00000000 00:00 0 
7fe604774000-7fe604777000 ---p 00000000 00:00 0 
7fe604777000-7fe604875000 rw-p 00000000 00:00 0 
7fe604875000-7fe604878000 ---p 00000000 00:00 0 
7fe604878000-7fe604976000 rw-p 00000000 00:00 0 
7fe604976000-7fe604979000 ---p 00000000 00:00 0 
7fe604979000-7fe604a77000 rw-p 00000000 00:00 0 
7fe604a77000-7fe604a7a000 ---p 00000000 00:00 0 
7fe604a7a000-7fe604b78000 rw-p 00000000 00:00 0 
7fe604b78000-7fe604b7b000 ---p 00000000 00:00 0 
7fe604b7b000-7fe604c79000 rw-p 00000000 00:00 0 
7fe604c79000-7fe60537b000 r--p 00000000 08:02 6823729                    /usr/lib/locale/locale-archive
7fe60537b000-7fe60537e000 ---p 00000000 00:00 0 
7fe60537e000-7fe60547c000 rw-p 00000000 00:00 0 
7fe60547c000-7fe60547f000 ---p 00000000 00:00 0 
7fe60547f000-7fe60557d000 rw-p 00000000 00:00 0 
7fe60557d000-7fe60557e000 ---p 00000000 00:00 0 
7fe60557e000-7fe60663d000 rw-p 00000000 00:00 0 
7fe60663d000-7fe60680a000 r--s 03be7000 08:02 7737975                    /usr/lib/jvm/java-8-openjdk-amd64/jre/lib/rt.jar
7fe60680a000-7fe6073a9000 rw-p 00000000 00:00 0 
7fe6073a9000-7fe6073aa000 ---p 00000000 00:00 0 
7fe6073aa000-7fe6074aa000 rw-p 00000000 00:00 0 
7fe6074aa000-7fe6074ab000 ---p 00000000 00:00 0 
7fe6074ab000-7fe6075ab000 rw-p 00000000 00:00 0 
7fe6075ab000-7fe6075ac000 ---p 00000000 00:00 0 
7fe6075ac000-7fe6076ac000 rw-p 00000000 00:00 0 
7fe6076ac000-7fe6076ad000 ---p 00000000 00:00 0 
7fe6076ad000-7fe6077d3000 rw-p 00000000 00:00 0 
7fe6077d3000-7fe607a17000 ---p 00000000 00:00 0 
7fe607a17000-7fe607a3d000 rw-p 00000000 00:00 0 
7fe607a3d000-7fe607c81000 ---p 00000000 00:00 0 
7fe607c81000-7fe607cb9000 rw-p 00000000 00:00 0 
7fe607cb9000-7fe607db6000 ---p 00000000 00:00 0 
7fe607db6000-7fe607dec000 rw-p 00000000 00:00 0 
7fe607dec000-7fe608177000 ---p 00000000 00:00 0 
7fe608177000-7fe608eb7000 rwxp 00000000 00:00 0 
7fe608eb7000-7fe617177000 ---p 00000000 00:00 0 
7fe617177000-7fe61717f000 r-xp 00000000 08:02 7737961                    /usr/lib/jvm/java-8-openjdk-amd64/jre/lib/amd64/libzip.so
7fe61717f000-7fe61737e000 ---p 00008000 08:02 7737961                    /usr/lib/jvm/java-8-openjdk-amd64/jre/lib/amd64/libzip.so
7fe61737e000-7fe61737f000 r--p 00007000 08:02 7737961                    /usr/lib/jvm/java-8-openjdk-amd64/jre/lib/amd64/libzip.so
7fe61737f000-7fe617380000 rw-p 00008000 08:02 7737961                    /usr/lib/jvm/java-8-openjdk-amd64/jre/lib/amd64/libzip.so
7fe617380000-7fe61738b000 r-xp 00000000 08:02 4460891                    /lib/x86_64-linux-gnu/libnss_files-2.23.so
7fe61738b000-7fe61758a000 ---p 0000b000 08:02 4460891                    /lib/x86_64-linux-gnu/libnss_files-2.23.so
7fe61758a000-7fe61758b000 r--p 0000a000 08:02 4460891                    /lib/x86_64-linux-gnu/libnss_files-2.23.so
7fe61758b000-7fe61758c000 rw-p 0000b000 08:02 4460891                    /lib/x86_64-linux-gnu/libnss_files-2.23.so
7fe61758c000-7fe617592000 rw-p 00000000 00:00 0 
7fe617592000-7fe61759d000 r-xp 00000000 08:02 4460887                    /lib/x86_64-linux-gnu/libnss_nis-2.23.so
7fe61759d000-7fe61779c000 ---p 0000b000 08:02 4460887                    /lib/x86_64-linux-gnu/libnss_nis-2.23.so
7fe61779c000-7fe61779d000 r--p 0000a000 08:02 4460887                    /lib/x86_64-linux-gnu/libnss_nis-2.23.so
7fe61779d000-7fe61779e000 rw-p 0000b000 08:02 4460887                    /lib/x86_64-linux-gnu/libnss_nis-2.23.so
7fe61779e000-7fe6177b4000 r-xp 00000000 08:02 4460885                    /lib/x86_64-linux-gnu/libnsl-2.23.so
7fe6177b4000-7fe6179b3000 ---p 00016000 08:02 4460885                    /lib/x86_64-linux-gnu/libnsl-2.23.so
7fe6179b3000-7fe6179b4000 r--p 00015000 08:02 4460885                    /lib/x86_64-linux-gnu/libnsl-2.23.so
7fe6179b4000-7fe6179b5000 rw-p 00016000 08:02 4460885                    /lib/x86_64-linux-gnu/libnsl-2.23.so
7fe6179b5000-7fe6179b7000 rw-p 00000000 00:00 0 
7fe6179b7000-7fe6179bf000 r-xp 00000000 08:02 4460883                    /lib/x86_64-linux-gnu/libnss_compat-2.23.so
7fe6179bf000-7fe617bbe000 ---p 00008000 08:02 4460883                    /lib/x86_64-linux-gnu/libnss_compat-2.23.so
7fe617bbe000-7fe617bbf000 r--p 00007000 08:02 4460883                    /lib/x86_64-linux-gnu/libnss_compat-2.23.so
7fe617bbf000-7fe617bc0000 rw-p 00008000 08:02 4460883                    /lib/x86_64-linux-gnu/libnss_compat-2.23.so
7fe617bc0000-7fe617bed000 r-xp 00000000 08:02 7737947                    /usr/lib/jvm/java-8-openjdk-amd64/jre/lib/amd64/libjava.so
7fe617bed000-7fe617dec000 ---p 0002d000 08:02 7737947                    /usr/lib/jvm/java-8-openjdk-amd64/jre/lib/amd64/libjava.so
7fe617dec000-7fe617ded000 r--p 0002c000 08:02 7737947                    /usr/lib/jvm/java-8-openjdk-amd64/jre/lib/amd64/libjava.so
7fe617ded000-7fe617def000 rw-p 0002d000 08:02 7737947                    /usr/lib/jvm/java-8-openjdk-amd64/jre/lib/amd64/libjava.so
7fe617def000-7fe617dfe000 r-xp 00000000 08:02 7737939                    /usr/lib/jvm/java-8-openjdk-amd64/jre/lib/amd64/libverify.so
7fe617dfe000-7fe617ffd000 ---p 0000f000 08:02 7737939                    /usr/lib/jvm/java-8-openjdk-amd64/jre/lib/amd64/libverify.so
7fe617ffd000-7fe617fff000 r--p 0000e000 08:02 7737939                    /usr/lib/jvm/java-8-openjdk-amd64/jre/lib/amd64/libverify.so
7fe617fff000-7fe618000000 rw-p 00010000 08:02 7737939                    /usr/lib/jvm/java-8-openjdk-amd64/jre/lib/amd64/libverify.so
7fe618000000-7fe61856f000 rw-p 00000000 00:00 0 
7fe61856f000-7fe61c000000 ---p 00000000 00:00 0 
7fe61c000000-7fe61c001000 r--s 00001000 08:02 10096866                   /home/allan/.apps/netbeans-8.1/java/modules/ext/hibernate4/slf4j-simple-1.6.1.jar
7fe61c001000-7fe61c002000 r--s 00006000 08:02 10095974                   /home/allan/.apps/netbeans-8.1/java/modules/ext/hibernate4/jboss-transaction-api_1.2_spec-1.0.0.Final.jar
7fe61c002000-7fe61c003000 r--s 00009000 08:02 10096518                   /home/allan/.apps/netbeans-8.1/java/modules/ext/hibernate4/hibernate-c3p0-4.3.1.Final.jar
7fe61c003000-7fe61c004000 r--s 00006000 08:02 11149673                   /home/allan/workspace/fsga/lib/jboss-transaction-api_1.2_spec-1.0.0.Final.jar
7fe61c004000-7fe61c005000 r--s 00002000 08:02 11149672                   /home/allan/workspace/fsga/lib/jboss-logging-annotations-1.2.0.Beta1.jar
7fe61c005000-7fe61c007000 r--s 0000c000 08:02 11149671                   /home/allan/workspace/fsga/lib/jboss-logging-3.1.3.GA.jar
7fe61c007000-7fe61c009000 r--s 00011000 08:02 11149669                   /home/allan/workspace/fsga/lib/jandex-1.1.0.Final.jar
7fe61c009000-7fe61c00e000 r--s 00017000 08:02 11149633                   /home/allan/workspace/fsga/lib/hibernate-jpa-2.1-api-1.0.0.Final.jar
7fe61c00e000-7fe61c013000 r--s 00048000 08:02 11149629                   /home/allan/workspace/fsga/lib/dom4j-1.6.1.jar
7fe61c013000-7fe61c01a000 r--s 00025000 08:02 10097111                   /home/allan/.apps/netbeans-8.1/java/modules/ext/nb-javac-api.jar
7fe61c01a000-7fe61c0b1000 rw-p 00000000 00:00 0 
7fe61c0b1000-7fe61c0b8000 r-xp 00000000 08:02 4464758                    /lib/x86_64-linux-gnu/librt-2.23.so
7fe61c0b8000-7fe61c2b7000 ---p 00007000 08:02 4464758                    /lib/x86_64-linux-gnu/librt-2.23.so
7fe61c2b7000-7fe61c2b8000 r--p 00006000 08:02 4464758                    /lib/x86_64-linux-gnu/librt-2.23.so
7fe61c2b8000-7fe61c2b9000 rw-p 00007000 08:02 4464758                    /lib/x86_64-linux-gnu/librt-2.23.so
7fe61c2b9000-7fe61c2cf000 r-xp 00000000 08:02 4460856                    /lib/x86_64-linux-gnu/libgcc_s.so.1
7fe61c2cf000-7fe61c4ce000 ---p 00016000 08:02 4460856                    /lib/x86_64-linux-gnu/libgcc_s.so.1
7fe61c4ce000-7fe61c4cf000 rw-p 00015000 08:02 4460856                    /lib/x86_64-linux-gnu/libgcc_s.so.1
7fe61c4cf000-7fe61c5d7000 r-xp 00000000 08:02 4464755                    /lib/x86_64-linux-gnu/libm-2.23.so
7fe61c5d7000-7fe61c7d6000 ---p 00108000 08:02 4464755                    /lib/x86_64-linux-gnu/libm-2.23.so
7fe61c7d6000-7fe61c7d7000 r--p 00107000 08:02 4464755                    /lib/x86_64-linux-gnu/libm-2.23.so
7fe61c7d7000-7fe61c7d8000 rw-p 00108000 08:02 4464755                    /lib/x86_64-linux-gnu/libm-2.23.so
7fe61c7d8000-7fe61c94a000 r-xp 00000000 08:02 6819917                    /usr/lib/x86_64-linux-gnu/libstdc++.so.6.0.21
7fe61c94a000-7fe61cb4a000 ---p 00172000 08:02 6819917                    /usr/lib/x86_64-linux-gnu/libstdc++.so.6.0.21
7fe61cb4a000-7fe61cb54000 r--p 00172000 08:02 6819917                    /usr/lib/x86_64-linux-gnu/libstdc++.so.6.0.21
7fe61cb54000-7fe61cb56000 rw-p 0017c000 08:02 6819917                    /usr/lib/x86_64-linux-gnu/libstdc++.so.6.0.21
7fe61cb56000-7fe61cb5a000 rw-p 00000000 00:00 0 
7fe61cb5a000-7fe61d7a0000 r-xp 00000000 08:02 7737959                    /usr/lib/jvm/java-8-openjdk-amd64/jre/lib/amd64/server/libjvm.so
7fe61d7a0000-7fe61d99f000 ---p 00c46000 08:02 7737959                    /usr/lib/jvm/java-8-openjdk-amd64/jre/lib/amd64/server/libjvm.so
7fe61d99f000-7fe61da32000 r--p 00c45000 08:02 7737959                    /usr/lib/jvm/java-8-openjdk-amd64/jre/lib/amd64/server/libjvm.so
7fe61da32000-7fe61da5a000 rw-p 00cd8000 08:02 7737959                    /usr/lib/jvm/java-8-openjdk-amd64/jre/lib/amd64/server/libjvm.so
7fe61da5a000-7fe61da8a000 rw-p 00000000 00:00 0 
7fe61da8a000-7fe61daa2000 r-xp 00000000 08:02 4464762                    /lib/x86_64-linux-gnu/libpthread-2.23.so
7fe61daa2000-7fe61dca1000 ---p 00018000 08:02 4464762                    /lib/x86_64-linux-gnu/libpthread-2.23.so
7fe61dca1000-7fe61dca2000 r--p 00017000 08:02 4464762                    /lib/x86_64-linux-gnu/libpthread-2.23.so
7fe61dca2000-7fe61dca3000 rw-p 00018000 08:02 4464762                    /lib/x86_64-linux-gnu/libpthread-2.23.so
7fe61dca3000-7fe61dca7000 rw-p 00000000 00:00 0 
7fe61dca7000-7fe61dcaa000 r-xp 00000000 08:02 4464764                    /lib/x86_64-linux-gnu/libdl-2.23.so
7fe61dcaa000-7fe61dea9000 ---p 00003000 08:02 4464764                    /lib/x86_64-linux-gnu/libdl-2.23.so
7fe61dea9000-7fe61deaa000 r--p 00002000 08:02 4464764                    /lib/x86_64-linux-gnu/libdl-2.23.so
7fe61deaa000-7fe61deab000 rw-p 00003000 08:02 4464764                    /lib/x86_64-linux-gnu/libdl-2.23.so
7fe61deab000-7fe61dec4000 r-xp 00000000 08:02 4461136                    /lib/x86_64-linux-gnu/libz.so.1.2.8
7fe61dec4000-7fe61e0c3000 ---p 00019000 08:02 4461136                    /lib/x86_64-linux-gnu/libz.so.1.2.8
7fe61e0c3000-7fe61e0c4000 r--p 00018000 08:02 4461136                    /lib/x86_64-linux-gnu/libz.so.1.2.8
7fe61e0c4000-7fe61e0c5000 rw-p 00019000 08:02 4461136                    /lib/x86_64-linux-gnu/libz.so.1.2.8
7fe61e0c5000-7fe61e285000 r-xp 00000000 08:02 4464763                    /lib/x86_64-linux-gnu/libc-2.23.so
7fe61e285000-7fe61e484000 ---p 001c0000 08:02 4464763                    /lib/x86_64-linux-gnu/libc-2.23.so
7fe61e484000-7fe61e488000 r--p 001bf000 08:02 4464763                    /lib/x86_64-linux-gnu/libc-2.23.so
7fe61e488000-7fe61e48a000 rw-p 001c3000 08:02 4464763                    /lib/x86_64-linux-gnu/libc-2.23.so
7fe61e48a000-7fe61e48e000 rw-p 00000000 00:00 0 
7fe61e48e000-7fe61e49b000 r-xp 00000000 08:02 7737934                    /usr/lib/jvm/java-8-openjdk-amd64/jre/lib/amd64/jli/libjli.so
7fe61e49b000-7fe61e69b000 ---p 0000d000 08:02 7737934                    /usr/lib/jvm/java-8-openjdk-amd64/jre/lib/amd64/jli/libjli.so
7fe61e69b000-7fe61e69c000 r--p 0000d000 08:02 7737934                    /usr/lib/jvm/java-8-openjdk-amd64/jre/lib/amd64/jli/libjli.so
7fe61e69c000-7fe61e69d000 rw-p 0000e000 08:02 7737934                    /usr/lib/jvm/java-8-openjdk-amd64/jre/lib/amd64/jli/libjli.so
7fe61e69d000-7fe61e6c3000 r-xp 00000000 08:02 4464759                    /lib/x86_64-linux-gnu/ld-2.23.so
7fe61e6c3000-7fe61e6cd000 r--s 00116000 08:02 8398558                    /usr/lib/jvm/java-8-openjdk-amd64/jre/lib/ext/localedata.jar
7fe61e6cd000-7fe61e796000 rw-p 00000000 00:00 0 
7fe61e796000-7fe61e799000 ---p 00000000 00:00 0 
7fe61e799000-7fe61e89c000 rw-p 00000000 00:00 0 
7fe61e89c000-7fe61e89f000 r--s 00010000 08:02 11149631                   /home/allan/workspace/fsga/lib/hibernate-commons-annotations-4.0.5.Final.jar
7fe61e89f000-7fe61e8a4000 r--s 00068000 08:02 11149628                   /home/allan/workspace/fsga/lib/antlr-2.7.7.jar
7fe61e8a4000-7fe61e8a5000 r--s 0000a000 08:02 8391805                    /usr/lib/jvm/java-8-openjdk-amd64/jre/lib/ext/jaccess.jar
7fe61e8a5000-7fe61e8a6000 r--s 00008000 08:02 8398557                    /usr/lib/jvm/java-8-openjdk-amd64/jre/lib/ext/sunec.jar
7fe61e8a6000-7fe61e8a7000 r--s 00010000 08:02 8391804                    /usr/lib/jvm/java-8-openjdk-amd64/jre/lib/ext/zipfs.jar
7fe61e8a7000-7fe61e8a9000 r--s 00001000 08:02 8398559                    /usr/lib/jvm/java-8-openjdk-amd64/jre/lib/ext/dnsns.jar
7fe61e8a9000-7fe61e8ad000 r--s 00037000 08:02 8398561                    /usr/lib/jvm/java-8-openjdk-amd64/jre/lib/ext/sunpkcs11.jar
7fe61e8ad000-7fe61e8b0000 r--s 0000f000 08:02 8391803                    /usr/lib/jvm/java-8-openjdk-amd64/jre/lib/ext/icedtea-sound.jar
7fe61e8b0000-7fe61e8b6000 r--s 0003a000 08:02 8391806                    /usr/lib/jvm/java-8-openjdk-amd64/jre/lib/ext/sunjce_provider.jar
7fe61e8b6000-7fe61e8be000 rw-s 00000000 08:02 9831606                    /tmp/hsperfdata_allan/13882
7fe61e8be000-7fe61e8bf000 rw-p 00000000 00:00 0 
7fe61e8bf000-7fe61e8c0000 r--p 00000000 00:00 0 
7fe61e8c0000-7fe61e8c2000 rw-p 00000000 00:00 0 
7fe61e8c2000-7fe61e8c3000 r--p 00025000 08:02 4464759                    /lib/x86_64-linux-gnu/ld-2.23.so
7fe61e8c3000-7fe61e8c4000 rw-p 00026000 08:02 4464759                    /lib/x86_64-linux-gnu/ld-2.23.so
7fe61e8c4000-7fe61e8c5000 rw-p 00000000 00:00 0 
7fff31053000-7fff31075000 rw-p 00000000 00:00 0                          [stack]
7fff31124000-7fff31126000 r--p 00000000 00:00 0                          [vvar]
7fff31126000-7fff31128000 r-xp 00000000 00:00 0                          [vdso]
ffffffffff600000-ffffffffff601000 r-xp 00000000 00:00 0                  [vsyscall]

VM Arguments:
jvm_args: -Dfile.encoding=UTF-8 
java_command: br.com.fisioforma.view.report.FaturamentoReport
java_class_path (initial): /home/allan/workspace/fsga/lib/antlr-2.7.7.jar:/home/allan/.apps/netbeans-8.1/java/modules/ext/nb-javac-api.jar:/home/allan/workspace/fsga/lib/dom4j-1.6.1.jar:/home/allan/workspace/fsga/lib/hibernate-commons-annotations-4.0.5.Final.jar:/home/allan/workspace/fsga/lib/hibernate-core-4.3.9.Final.jar:/home/allan/workspace/fsga/lib/hibernate-jpa-2.1-api-1.0.0.Final.jar:/home/allan/workspace/fsga/lib/jandex-1.1.0.Final.jar:/home/allan/workspace/fsga/lib/javassist-3.18.1-GA.jar:/home/allan/workspace/fsga/lib/jboss-logging-3.1.3.GA.jar:/home/allan/workspace/fsga/lib/jboss-logging-annotations-1.2.0.Beta1.jar:/home/allan/workspace/fsga/lib/jboss-transaction-api_1.2_spec-1.0.0.Final.jar:/home/allan/.apps/netbeans-8.1/java/modules/ext/hibernate4/antlr-2.7.7.jar:/home/allan/.apps/netbeans-8.1/java/modules/ext/hibernate4/c3p0-0.9.2.1.jar:/home/allan/.apps/netbeans-8.1/java/modules/ext/hibernate4/hibernate-c3p0-4.3.1.Final.jar:/home/allan/.apps/netbeans-8.1/java/modules/ext/hibernate4/mchange-commons-java-0.2.3.4.jar:/home/allan/.apps/netbeans-8.1/java/modules/ext/hibernate4/dom4j-1.6.1.jar:/home/allan/.apps/netbeans-8.1/java/modules/ext/hibernate4/ehcache-core-2.4.3.jar:/home/allan/.apps/netbeans-8.1/java/modules/ext/hibernate4/hibernate-ehcache-4.3.1.Final.jar:/home/allan/.apps/netbeans-8.1/java/modules/ext/hibernate4/hibernate-core-4.3.1.Final.jar:/home/allan/.apps/netbeans-8.1/java/modules/ext/hibernate4/jboss-logging-3.1.3.GA.jar:/home/allan/.apps/netbeans-8.1/java/modules/ext/hibernate4/hibernate-commons-annotations-4.0.4.Final.jar:/home/allan/.apps/netbeans-8.1/java/modules/ext/hibernate4/hibernate-entitymanager-4.3.1.Final.jar:/home/allan/.apps/netbeans-8.1/java/modules/ext/hibernate4/javassist-3.18.1-GA.jar:/home/allan/.apps/netbeans-8.1/java/modules/ext/hibernate4/jboss-transaction-api_1.2_spec-1.0.0.Final.jar:/home/allan/.apps/netbeans-8.1/java/modules/ext/hibernate4/slf4j-api-1.6.1.jar:/home/allan/.apps/netbeans-8.1/java/modules/ext/hiberna
Launcher Type: SUN_STANDARD

Environment Variables:
PATH=/home/allan/.rvm/gems/ruby-2.2.1/bin:/home/allan/.rvm/gems/ruby-2.2.1@global/bin:/home/allan/.rvm/rubies/ruby-2.2.1/bin:/usr/local/sbin:/usr/local/bin:/usr/sbin:/usr/bin:/sbin:/bin:/usr/games:/usr/local/games:/home/allan/.rvm/bin
USERNAME=allan
LD_LIBRARY_PATH=/usr/lib/jvm/java-1.8.0-openjdk-amd64/jre/lib/amd64:/usr/lib/jvm/java-1.8.0-openjdk-amd64/jre/lib/i386:
SHELL=/bin/bash
DISPLAY=:1

Signal Handlers:
SIGSEGV: [libjvm.so+0xa5e090], sa_mask[0]=11111111011111111101111111111110, sa_flags=SA_RESTART|SA_SIGINFO
SIGBUS: [libjvm.so+0xa5e090], sa_mask[0]=11111111011111111101111111111110, sa_flags=SA_RESTART|SA_SIGINFO
SIGFPE: [libjvm.so+0x8a9800], sa_mask[0]=11111111011111111101111111111110, sa_flags=SA_RESTART|SA_SIGINFO
SIGPIPE: [libjvm.so+0x8a9800], sa_mask[0]=11111111011111111101111111111110, sa_flags=SA_RESTART|SA_SIGINFO
SIGXFSZ: [libjvm.so+0x8a9800], sa_mask[0]=11111111011111111101111111111110, sa_flags=SA_RESTART|SA_SIGINFO
SIGILL: [libjvm.so+0x8a9800], sa_mask[0]=11111111011111111101111111111110, sa_flags=SA_RESTART|SA_SIGINFO
SIGUSR1: SIG_DFL, sa_mask[0]=00000000000000000000000000000000, sa_flags=none
SIGUSR2: [libjvm.so+0x8a96b0], sa_mask[0]=00100000000000000000000000000000, sa_flags=SA_RESTART|SA_SIGINFO
SIGHUP: [libjvm.so+0x8a9b80], sa_mask[0]=11111111011111111101111111111110, sa_flags=SA_RESTART|SA_SIGINFO
SIGINT: SIG_IGN, sa_mask[0]=00000000000000000000000000000000, sa_flags=none
SIGTERM: [libjvm.so+0x8a9b80], sa_mask[0]=11111111011111111101111111111110, sa_flags=SA_RESTART|SA_SIGINFO
SIGQUIT: [libjvm.so+0x8a9b80], sa_mask[0]=11111111011111111101111111111110, sa_flags=SA_RESTART|SA_SIGINFO


---------------  S Y S T E M  ---------------

OS:DISTRIB_ID=Ubuntu
DISTRIB_RELEASE=16.04
DISTRIB_CODENAME=xenial
DISTRIB_DESCRIPTION="Ubuntu Xenial Xerus (development branch)"

uname:Linux 4.4.0-28-generic #47-Ubuntu SMP Fri Jun 24 10:09:13 UTC 2016 x86_64
libc:glibc 2.23 NPTL 2.23 
rlimit: STACK 8192k, CORE 0k, NPROC 29232, NOFILE 65536, AS infinity
load average:0,87 0,51 0,34

/proc/meminfo:
MemTotal:        7592664 kB
MemFree:         1402440 kB
MemAvailable:    3470664 kB
Buffers:          470844 kB
Cached:          2020424 kB
SwapCached:          536 kB
Active:          4490908 kB
Inactive:        1267392 kB
Active(anon):    3153892 kB
Inactive(anon):   521932 kB
Active(file):    1337016 kB
Inactive(file):   745460 kB
Unevictable:          16 kB
Mlocked:              16 kB
SwapTotal:       7796732 kB
SwapFree:        7795868 kB
Dirty:               192 kB
Writeback:             0 kB
AnonPages:       3265792 kB
Mapped:           376856 kB
Shmem:            409040 kB
Slab:             332792 kB
SReclaimable:     289604 kB
SUnreclaim:        43188 kB
KernelStack:       11296 kB
PageTables:        28432 kB
NFS_Unstable:          0 kB
Bounce:                0 kB
WritebackTmp:          0 kB
CommitLimit:    11593064 kB
Committed_AS:    6736012 kB
VmallocTotal:   34359738367 kB
VmallocUsed:           0 kB
VmallocChunk:          0 kB
HardwareCorrupted:     0 kB
AnonHugePages:   2164736 kB
CmaTotal:              0 kB
CmaFree:               0 kB
HugePages_Total:       0
HugePages_Free:        0
HugePages_Rsvd:        0
HugePages_Surp:        0
Hugepagesize:       2048 kB
DirectMap4k:      150588 kB
DirectMap2M:     7647232 kB
DirectMap1G:     1048576 kB


CPU:total 4 (2 cores per cpu, 2 threads per core) family 6 model 61 stepping 4, cmov, cx8, fxsr, mmx, sse, sse2, sse3, ssse3, sse4.1, sse4.2, popcnt, avx, avx2, aes, clmul, erms, 3dnowpref, lzcnt, ht, tsc, tscinvbit, bmi1, bmi2, adx

/proc/cpuinfo:
processor	: 0
vendor_id	: GenuineIntel
cpu family	: 6
model		: 61
model name	: Intel(R) Core(TM) M-5Y10c CPU @ 0.80GHz
stepping	: 4
microcode	: 0x1f
cpu MHz		: 2000.000
cache size	: 4096 KB
physical id	: 0
siblings	: 4
core id		: 0
cpu cores	: 2
apicid		: 0
initial apicid	: 0
fpu		: yes
fpu_exception	: yes
cpuid level	: 20
wp		: yes
flags		: fpu vme de pse tsc msr pae mce cx8 apic sep mtrr pge mca cmov pat pse36 clflush dts acpi mmx fxsr sse sse2 ss ht tm pbe syscall nx pdpe1gb rdtscp lm constant_tsc arch_perfmon pebs bts rep_good nopl xtopology nonstop_tsc aperfmperf eagerfpu pni pclmulqdq dtes64 monitor ds_cpl vmx est tm2 ssse3 sdbg fma cx16 xtpr pdcm pcid sse4_1 sse4_2 x2apic movbe popcnt tsc_deadline_timer aes xsave avx f16c rdrand lahf_lm abm 3dnowprefetch epb intel_pt tpr_shadow vnmi flexpriority ept vpid fsgsbase tsc_adjust bmi1 avx2 smep bmi2 erms invpcid rdseed adx smap xsaveopt dtherm ida arat pln pts
bugs		:
bogomips	: 1995.31
clflush size	: 64
cache_alignment	: 64
address sizes	: 39 bits physical, 48 bits virtual
power management:

processor	: 1
vendor_id	: GenuineIntel
cpu family	: 6
model		: 61
model name	: Intel(R) Core(TM) M-5Y10c CPU @ 0.80GHz
stepping	: 4
microcode	: 0x1f
cpu MHz		: 2000.000
cache size	: 4096 KB
physical id	: 0
siblings	: 4
core id		: 1
cpu cores	: 2
apicid		: 2
initial apicid	: 2
fpu		: yes
fpu_exception	: yes
cpuid level	: 20
wp		: yes
flags		: fpu vme de pse tsc msr pae mce cx8 apic sep mtrr pge mca cmov pat pse36 clflush dts acpi mmx fxsr sse sse2 ss ht tm pbe syscall nx pdpe1gb rdtscp lm constant_tsc arch_perfmon pebs bts rep_good nopl xtopology nonstop_tsc aperfmperf eagerfpu pni pclmulqdq dtes64 monitor ds_cpl vmx est tm2 ssse3 sdbg fma cx16 xtpr pdcm pcid sse4_1 sse4_2 x2apic movbe popcnt tsc_deadline_timer aes xsave avx f16c rdrand lahf_lm abm 3dnowprefetch epb intel_pt tpr_shadow vnmi flexpriority ept vpid fsgsbase tsc_adjust bmi1 avx2 smep bmi2 erms invpcid rdseed adx smap xsaveopt dtherm ida arat pln pts
bugs		:
bogomips	: 1995.31
clflush size	: 64
cache_alignment	: 64
address sizes	: 39 bits physical, 48 bits virtual
power management:

processor	: 2
vendor_id	: GenuineIntel
cpu family	: 6
model		: 61
model name	: Intel(R) Core(TM) M-5Y10c CPU @ 0.80GHz
stepping	: 4
microcode	: 0x1f
cpu MHz		: 1999.960
cache size	: 4096 KB
physical id	: 0
siblings	: 4
core id		: 0
cpu cores	: 2
apicid		: 1
initial apicid	: 1
fpu		: yes
fpu_exception	: yes
cpuid level	: 20
wp		: yes
flags		: fpu vme de pse tsc msr pae mce cx8 apic sep mtrr pge mca cmov pat pse36 clflush dts acpi mmx fxsr sse sse2 ss ht tm pbe syscall nx pdpe1gb rdtscp lm constant_tsc arch_perfmon pebs bts rep_good nopl xtopology nonstop_tsc aperfmperf eagerfpu pni pclmulqdq dtes64 monitor ds_cpl vmx est tm2 ssse3 sdbg fma cx16 xtpr pdcm pcid sse4_1 sse4_2 x2apic movbe popcnt tsc_deadline_timer aes xsave avx f16c rdrand lahf_lm abm 3dnowprefetch epb intel_pt tpr_shadow vnmi flexpriority ept vpid fsgsbase tsc_adjust bmi1 avx2 smep bmi2 erms invpcid rdseed adx smap xsaveopt dtherm ida arat pln pts
bugs		:
bogomips	: 1995.31
clflush size	: 64
cache_alignment	: 64
address sizes	: 39 bits physical, 48 bits virtual
power management:

processor	: 3
vendor_id	: GenuineIntel
cpu family	: 6
model		: 61
model name	: Intel(R) Core(TM) M-5Y10c CPU @ 0.80GHz
stepping	: 4
microcode	: 0x1f
cpu MHz		: 2000.000
cache size	: 4096 KB
physical id	: 0
siblings	: 4
core id		: 1
cpu cores	: 2
apicid		: 3
initial apicid	: 3
fpu		: yes
fpu_exception	: yes
cpuid level	: 20
wp		: yes
flags		: fpu vme de pse tsc msr pae mce cx8 apic sep mtrr pge mca cmov pat pse36 clflush dts acpi mmx fxsr sse sse2 ss ht tm pbe syscall nx pdpe1gb rdtscp lm constant_tsc arch_perfmon pebs bts rep_good nopl xtopology nonstop_tsc aperfmperf eagerfpu pni pclmulqdq dtes64 monitor ds_cpl vmx est tm2 ssse3 sdbg fma cx16 xtpr pdcm pcid sse4_1 sse4_2 x2apic movbe popcnt tsc_deadline_timer aes xsave avx f16c rdrand lahf_lm abm 3dnowprefetch epb intel_pt tpr_shadow vnmi flexpriority ept vpid fsgsbase tsc_adjust bmi1 avx2 smep bmi2 erms invpcid rdseed adx smap xsaveopt dtherm ida arat pln pts
bugs		:
bogomips	: 1995.31
clflush size	: 64
cache_alignment	: 64
address sizes	: 39 bits physical, 48 bits virtual
power management:



Memory: 4k page, physical 7592664k(1950016k free), swap 7796732k(7795868k free)

vm_info: OpenJDK 64-Bit Server VM (25.91-b14) for linux-amd64 JRE (1.8.0_91-8u91-b14-0ubuntu4~16.04.1-b14), built on Apr 23 2016 07:03:54 by "buildd" with gcc 5.3.1 20160413

time: Wed Jul 20 18:19:30 2016
elapsed time: 5546 seconds (0d 1h 32m 26s)

